Online Shopping Transaction Analysis
…
online_data[(online_data$UnitPrice <= 0),]

## # A tibble: 2,517 x 8
##    InvoiceNo StockCode Description Quantity InvoiceDate         UnitPrice
##    <fct>     <fct>     <fct>          <dbl> <dttm>                  <dbl>
##  1 536414    22139     <NA>              56 2010-12-01 11:52:00         0
##  2 536545    21134     <NA>               1 2010-12-01 14:32:00         0
##  3 536546    22145     <NA>               1 2010-12-01 14:33:00         0
##  4 536547    37509     <NA>               1 2010-12-01 14:33:00         0
##  5 536549    85226A    <NA>               1 2010-12-01 14:34:00         0
##  6 536550    85044     <NA>               1 2010-12-01 14:34:00         0
##  7 536552    20950     <NA>               1 2010-12-01 14:34:00         0
##  8 536553    37461     <NA>               3 2010-12-01 14:35:00         0
##  9 536554    84670     <NA>              23 2010-12-01 14:35:00         0
## 10 536589    21777     <NA>             -10 2010-12-01 16:50:00         0
## # ... with 2,507 more rows, and 2 more variables: CustomerID <fct>,
## #   Country <fct>
…
online_data[(online_data$Quantity <= 0),]

## # A tibble: 10,624 x 8
##    InvoiceNo StockCode Description Quantity InvoiceDate         UnitPrice
##    <fct>     <fct>     <fct>          <dbl> <dttm>                  <dbl>
##  1 C536379   D         Discount          -1 2010-12-01 09:41:00    27.5  
##  2 C536383   35004C    SET OF 3 C~       -1 2010-12-01 09:49:00     4.65 
##  3 C536391   22556     PLASTERS I~      -12 2010-12-01 10:24:00     1.65 
##  4 C536391   21984     PACK OF 12~      -24 2010-12-01 10:24:00     0.290
##  5 C536391   21983     PACK OF 12~      -24 2010-12-01 10:24:00     0.290
##  6 C536391   21980     PACK OF 12~      -24 2010-12-01 10:24:00     0.290
##  7 C536391   21484     CHICK GREY~      -12 2010-12-01 10:24:00     3.45 
##  8 C536391   22557     PLASTERS I~      -12 2010-12-01 10:24:00     1.65 
##  9 C536391   22553     PLASTERS I~      -24 2010-12-01 10:24:00     1.65 
## 10 C536506   22960     JAM MAKING~       -6 2010-12-01 12:38:00     4.25 
## # ... with 10,614 more rows, and 2 more variables: CustomerID <fct>,
## #   Country <fct>
…
